[
	{
		"firstName": "John",
		"lastName": "Fruciante",
		"username": "admin",
		"password": "admin"	
	},
	{
		"firstName": "Steve",
		"lastName": "Vai",
		"username": "admin1",
		"password": "admin1"	
	},
	{
		"firstName": "Guthrie",
		"lastName": "Govan",
		"username": "admin2",
		"password": "admin2"	
	},
	{
		"firstName": "Mateus",
		"lastName": "Azato",
		"username": "admin3",
		"password": "admin3"	
	}
]